{
  "type": "service_account",
  "project_id": "mi-ts-class",
  "private_key_id": "1ac7df18e5aca666cc810d60a3e6c2dbfb8f4ef6",
  "private_key": "-----BEGIN PRIVATE KEY-----\nMIIEvQIBADANBgkqhkiG9w0BAQEFAASCBKcwggSjAgEAAoIBAQDZ+1s34qBe85jR\nAh0TdxAktpWGbN6ndCulCOAgMKUevNyszlaNVsqbhbIzK34414B/q2PKyQgnSYlf\nT+kWA8xx6A+E1XdHp4orDRi0xuMOiLoJcsrevnr10YD6cDwQOf0EwkKtu3y5k7Ed\nVp1yIWTyDvoBh3gNnVhzstZNChjhkaA8bIQbHZmZGAxoIBDwJkkuMcczy7YL1qh9\nL3t2oAXONtdawLMrIab3RLDr/Gu0UMc9NrjSF3p2iDlS7rOFqBNdGFNEvg+UjE8s\n7LUIzzRC/H42QLgc6ga7ECt17t19MnhdsTWZ/FxQoW5Q0Yho676jP8K/soYnbQO7\nl19ZI+4tAgMBAAECggEAAyL5BiZ5pUl2hgmJ2Tx9IDZh1/XXjWvEjWg5Hv6GVXcg\n+8brYdkSXiUiHwGCCznP9Qqbz7KxlMZXnSH9Zu9C28HxDmz3hiCZE3m2Zt1lpXvt\nLepb+0qc2iOKphQp9m0lDawtQz+4KzuUH5ANEd6FnOZ2vGwp6GELeMEhQ/ZTmYdO\nnZBgxlCW426uhvNmTX5y42Rk5kKFJWAX4wxLnv2x+MQgGRrrxxAVrAORvQbFnl0/\nRBoM7pv12b1vXvZq+wX7LSVrCI+zJ2Q3isJrYtG1eKHGpLxQRmd3oPSJzgnn14u5\n0Tyaw+yWqB8UmuEpNtBPyoNe7qMj2vvtAi+uAqe2VwKBgQDzqKmKK4YPqHUV4YVA\n+pg9+99T5V7k94e30jyFeV2DELaPP6GqctQRqQuFZHPFVG/mP62oQtRirWNKGKVy\nevJczR8DjT+hpAMKozN8LS/C6N4T3+0M12iQNG8oYnyWxXTPHNPh2LTWst1c1PpN\nAp2ByY2NIUaMDwr963AD+GdwEwKBgQDlBcKmLEh12tGl1CVTfEcYySurYqKCw1jU\n52HBAM1yf8MGwZP6AHyVFrmMqRoiMEzODlf3Nzy+FbEt2Jtzahg+6VwMbSPIiedG\nm4YhE4Ap5DojeQpqfsqT2NQKQgbfP6msW7TZ7Eq4qr/4l57sSJ5WJOSgTVoZNSLW\nOy1gFTVwvwKBgEG4k4pGNRHSIUq2mqetMBU/87wAWTkvHvdRCKwD0VpBzswSoLuF\n33en/giL0MJABTK4qFGDPSAknmxk+3NGgErRtPTTS3+A6qUa4g8zbPeIsiXwN1NI\nYtbKndTpw6szNU+L+gan2hczBYw9kgnlk7BnOfwAJrQudouIzpzziorrAoGAEYoG\nZSmBBx2R7qw3i5Q58aj+Yiq0nWUOeYea0egY08r7CZprlbrRz60k2qPcr3+ZcjJh\nBDrDuR76KbOr/APFBZRji0QUeHgvMRYaCJBwwUSMO0k6xfsd0oLJgluaISDEAsIn\nMIVLF6dj+krKTfglwB0lMS2bV9Dc8SEpEXGuXQsCgYEAn7hDHwQPHme89e/R+3QB\nW5iwO2NAz2LuBt5RzbdKSS4nPVlie/HFLM0ZL3meb+pjiyVHe94IlyFOajp44wbn\nEkNRYYLzzXWIMPniEksqTir09N3qwV03oeekbBfVfO1MdTc64V3TovYhpZxDcY+i\nDKipUymNT0xxB2Qws3uzam0=\n-----END PRIVATE KEY-----\n",
  "client_email": "firebase-adminsdk-2a5vk@mi-ts-class.iam.gserviceaccount.com",
  "client_id": "100909321691797851666",
  "auth_uri": "https://accounts.google.com/o/oauth2/auth",
  "token_uri": "https://oauth2.googleapis.com/token",
  "auth_provider_x509_cert_url": "https://www.googleapis.com/oauth2/v1/certs",
  "client_x509_cert_url": "https://www.googleapis.com/robot/v1/metadata/x509/firebase-adminsdk-2a5vk%40mi-ts-class.iam.gserviceaccount.com"
}
